punct	23299
case	17279
nsubj	16137
det	15608
root	12356
advmod	10893
obj	10101
obl	9076
amod	9004
compound	8063
conj	7482
mark	7423
nmod	6846
cc	6719
aux	6474
cop	4437
advcl	3811
nmod:poss	3637
xcomp	2998
nummod	2477
ccomp	2372
acl:relcl	1988
appos	1502
acl	1464
flat	1425
parataxis	1405
aux:pass	1343
nsubj:pass	1128
compound:prt	738
discourse	700
expl	586
obl:tmod	550
fixed	491
obl:npmod	455
list	428
iobj	369
nmod:tmod	286
csubj	276
goeswith	258
det:predet	162
nmod:npmod	143
vocative	122
cc:preconj	101
reparandum	29
flat:foreign	12
csubj:pass	5
dep	5
dislocated	2
orphan	1
